{
  "name": "Clinic",
  "base": "PersistedModel",
  "idInjection": true,
  "options": {
    "validateUpsert": true
  },
  "properties": {
    "ClinicName": {
      "type": "string",
      "required": true
    },
    "Category": {
      "type": "string",
      "required": true
    },
    "Address": {
      "type": "string",
      "required": true
    },
    "MinimumFee": {
      "type": "number"
    },
    "MaximumFee": {
      "type": "number"
    },
    "Hours": {
      "type": "Hours"
    },
    "Practitioners": {
      "type": [
        "string"
      ]
    },
    "Specialties": {
      "type": [
        "string"
      ]
    }
  },
  "validations": [],
  "relations": {
    "insurances": {
      "type": "hasMany",
      "model": "Insurance",
      "foreignKey": "clinicId",
      "options": {
        "nestRemoting": true
      },
      "through": "ClinicInsurance",
      "keyThrough": "insuranceId"
    }
  },
  "acls": [
    {
      "accessType": "*",
      "principalType": "ROLE",
      "principalId": "$everyone",
      "permission": "DENY"
    },
    {
      "accessType": "*",
      "principalType": "ROLE",
      "principalId": "Admin",
      "permission": "ALLOW"
    }
  ],
  "methods": {}
}
